Division,WeightClassKg,Place,Name,Team,BodyweightKg,Best3SquatKg,Best3BenchKg,Best3DeadliftKg,TotalKg,Equipment,Event,Sex
Boys,51.71,1,Corbyn Sharp,Vernon,51.48,83.91,70.31,92.99,247.21,Single-ply,SBD,M
Boys,55.79,1,Justin Wilson #11,Wichita Falls City View,55.34,174.63,72.57,163.29,410.5,Single-ply,SBD,M
Boys,59.87,1,Kyle Reed,Wichita Falls City View,59.56,192.78,83.91,195.04,471.74,Single-ply,SBD,M
Boys,59.87,DQ,Cayden Wright,Burkburnett,58.97,154.22,88.45,,,Single-ply,SBD,M
Boys,67.13,1,Tuan Hoang,Wichita Falls City View,66.22,204.12,113.4,192.78,510.29,Single-ply,SBD,M
Boys,67.13,2,Timoteo Dominguez,Wichita Falls City View,66.68,181.44,83.91,165.56,430.91,Single-ply,SBD,M
Boys,67.13,3,Casey Fung,Iowa Park,66.68,165.56,90.72,151.95,408.23,Single-ply,SBD,M
Boys,67.13,4,Chris Graham #1,Wichita Falls City View,65.77,142.88,81.65,172.37,396.89,Single-ply,SBD,M
Boys,67.13,5,Tyqwan Muhammad,Wichita Falls City View,64.86,136.08,70.31,181.44,387.82,Single-ply,SBD,M
Boys,67.13,6,Andrew Tanguma,Vernon,66.22,136.08,83.91,158.76,378.75,Single-ply,SBD,M
Boys,67.13,7,Bobby Copeland,Wichita Falls City View,66.68,129.27,65.77,170.1,365.14,Single-ply,SBD,M
Boys,67.13,8,Scott Frazier,Burkburnett,67.13,127.01,83.91,120.2,331.12,Single-ply,SBD,M
Boys,67.13,DQ,Daniel Fox,Wichita Falls Rider,67.13,,,,,Single-ply,SBD,M
Boys,74.84,1,Brysan Garrard,Vernon,73.94,188.24,111.13,185.97,485.34,Single-ply,SBD,M
Boys,74.84,2,Michael Trinh,Wichita Falls,73.94,170.1,102.06,204.12,476.27,Single-ply,SBD,M
Boys,74.84,3,James Craven,Iowa Park,74.84,172.37,102.06,201.85,476.27,Single-ply,SBD,M
Boys,74.84,4,Dominique Horton,Wichita Falls Rider,70.76,176.9,92.99,197.31,467.2,Single-ply,SBD,M
Boys,74.84,5,Mason Duke,Burkburnett,73.26,170.1,92.99,185.97,449.06,Single-ply,SBD,M
Boys,74.84,6,Chance Bledsoe,Wichita Falls Rider,70.76,174.63,92.99,174.63,442.25,Single-ply,SBD,M
Boys,74.84,7,Simon Avery,Burkburnett,71.21,181.44,83.91,158.76,424.11,Single-ply,SBD,M
Boys,74.84,8,Bryzon Austin,Vernon,72.12,174.63,88.45,142.88,405.97,Single-ply,SBD,M
Boys,74.84,9,Brandon Hernandez #2,Iowa Park,74.39,163.29,104.33,131.54,399.16,Single-ply,SBD,M
Boys,74.84,10,Drew Hawthorne,Burkburnett,74.84,149.69,65.77,156.49,371.95,Single-ply,SBD,M
Boys,74.84,11,John Nabors,Wichita Falls City View,73.94,127.01,79.38,158.76,365.14,Single-ply,SBD,M
Boys,74.84,DQ,Matthew Molina,Wichita Falls City View,73.48,,,,,Single-ply,SBD,M
Boys,74.84,DQ,Spencer Vaughn,Wichita Falls City View,74.39,,,,,Single-ply,SBD,M
Boys,74.84,DQ,Jakub Stokinger,Burkburnett,73.26,,,,,Single-ply,SBD,M
Boys,74.84,DQ,Chevy Hawkins,Wichita Falls City View,73.48,,,,,Single-ply,SBD,M
Boys,82.1,1,Darien Boyd,Wichita Falls Rider,80.29,192.78,115.67,174.63,483.08,Single-ply,SBD,M
Boys,82.1,2,Riki Borders,Wichita Falls Rider,77.56,197.31,99.79,183.7,480.81,Single-ply,SBD,M
Boys,82.1,3,Dalton Reagan,Vernon,81.65,183.7,106.59,172.37,462.66,Single-ply,SBD,M
Boys,82.1,4,Crafton Lindenborn,Wichita Falls City View,80.74,181.44,92.99,181.44,455.86,Single-ply,SBD,M
Boys,82.1,5,Chris Nabors,Wichita Falls City View,81.65,181.44,95.25,172.37,449.06,Single-ply,SBD,M
Boys,82.1,6,Jaden Dupes,Wichita Falls Rider,79.83,170.1,74.84,161.03,405.97,Single-ply,SBD,M
Boys,82.1,7,Trasce Ensley,Wichita Falls City View,81.19,115.67,72.57,154.22,342.46,Single-ply,SBD,M
Boys,82.1,DQ,Tristan Alewine,Wichita Falls City View,81.65,,,,,Single-ply,SBD,M
Boys,82.1,DQ,Tinaye Mubvumba,Vernon,75.52,,,,,Single-ply,SBD,M
Boys,82.1,DQ,Baylen Farris,Wichita Falls,77.56,,,,,Single-ply,SBD,M
Boys,89.81,1,Marcus King,Wichita Falls,88.9,217.72,136.08,226.8,580.6,Single-ply,SBD,M
Boys,89.81,2,Jadon Stringfellow,Burkburnett,83.01,179.17,108.86,176.9,464.93,Single-ply,SBD,M
Boys,89.81,3,Austin Phillips,Iowa Park,88.45,161.03,120.2,167.83,449.06,Single-ply,SBD,M
Boys,89.81,4,Julian Garcia,Wichita Falls City View,88.45,149.69,86.18,172.37,408.23,Single-ply,SBD,M
Boys,89.81,5,Cameron Dandridge,Wichita Falls City View,88.9,133.81,90.72,136.08,360.61,Single-ply,SBD,M
Boys,99.79,1,Hunter Bagley,Iowa Park,99.34,258.55,151.95,240.4,650.91,Single-ply,SBD,M
Boys,99.79,2,Jimmy Tran #3,Wichita Falls,98.88,272.16,122.47,208.65,603.28,Single-ply,SBD,M
Boys,99.79,3,Cooper Duke,Burkburnett,99.34,174.63,90.72,181.44,446.79,Single-ply,SBD,M
Boys,99.79,4,Ian McClure,Burkburnett,99.79,174.63,88.45,158.76,421.84,Single-ply,SBD,M
Boys,99.79,DQ,John Fulton,Burkburnett,98.88,,,,,Single-ply,SBD,M
Boys,109.77,1,Aaron Matthews,Wichita Falls Rider,108.86,244.94,138.35,208.65,591.94,Single-ply,SBD,M
Boys,109.77,2,Tyson Whiteside,Wichita Falls,108.86,208.65,133.81,206.38,548.85,Single-ply,SBD,M
Boys,109.77,3,Makkedah Brown,Wichita Falls,109.32,197.31,122.47,210.92,530.7,Single-ply,SBD,M
Boys,109.77,4,Antwan Kirt,Wichita Falls,108.86,210.92,102.06,208.65,521.63,Single-ply,SBD,M
Boys,124.74,1,Caleb Hughes,Wichita Falls Rider,123.83,222.26,145.15,226.8,594.21,Single-ply,SBD,M
Boys,124.74,2,Jonathan Ewing,Wichita Falls Rider,122.47,231.33,142.88,215.46,589.67,Single-ply,SBD,M
Boys,124.74,3,Preston Newman,Vernon,122.47,240.4,156.49,190.51,587.4,Single-ply,SBD,M
Boys,124.74,4,Jeremiah Stanley,Iowa Park,122.47,217.72,163.29,195.04,576.06,Single-ply,SBD,M
Boys,124.74,5,Kyson Hoskins,Burkburnett,124.74,204.12,129.27,217.72,551.11,Single-ply,SBD,M
Boys,124.74,6,Mark Guerra,Burkburnett,124.74,181.44,129.27,174.63,485.34,Single-ply,SBD,M
Boys,124.74+,1,Aytch Warrior,Wichita Falls,131.54,244.94,111.13,249.48,605.55,Single-ply,SBD,M
