Name,WeightClassKg,Division,Sex,Best3SquatKg,Best3BenchKg,Best3DeadliftKg,TotalKg,Event,Equipment,Place
Virginia Zelinski,56,Open,F,113.4,45.36,124.74,283.5,SBD,Single-ply,1
Kelly Zaffke,56,Open,F,108.86,52.16,115.67,276.69,SBD,Single-ply,2
Neal Genge,60,Open,M,145.15,74.84,179.17,399.16,SBD,Single-ply,1
John Aiello,60,Open,M,145.15,86.18,163.29,394.63,SBD,Single-ply,2
Val Wooten,60,Open,F,120.2,77.11,158.76,356.07,SBD,Single-ply,3
Marcy Stroik,60,Open,F,81.65,45.36,117.93,244.94,SBD,Single-ply,4
Larry Block,60,Open,M,,,,,SBD,Single-ply,DQ
Jim Luna,67.5,Open,M,206.38,131.54,217.72,555.65,SBD,Single-ply,1
Mike Grossman,67.5,Open,M,195.04,122.47,224.53,542.04,SBD,Single-ply,2
Chris Yaritz,67.5,Open,M,185.97,113.4,215.46,514.83,SBD,Single-ply,3
Dan DeSjarlais,67.5,Open,M,179.17,115.67,208.65,503.49,SBD,Single-ply,4
John Krueger,67.5,Open,M,190.51,120.2,190.51,501.22,SBD,Single-ply,5
Hoyt Smith,67.5,Open,M,181.44,115.67,185.97,483.08,SBD,Single-ply,6
Jeanine Ricci,67.5,Open,F,147.42,72.57,151.95,371.95,SBD,Single-ply,7
Gail Gondek,67.5,Open,F,127.01,79.38,133.81,340.19,SBD,Single-ply,8
Robert Ciaciura,75,Open,M,238.14,127.01,249.48,614.62,SBD,Single-ply,1
Fred Vasatan,75,Open,M,226.8,133.81,226.8,587.4,SBD,Single-ply,2
John Boysen,75,Open,M,195.04,133.81,242.67,571.53,SBD,Single-ply,3
Robert Poetzel,75,Open,M,195.04,140.61,210.92,546.58,SBD,Single-ply,4
Michael Hrudka,75,Open,M,201.85,129.27,208.65,539.78,SBD,Single-ply,5
Steve Korff,75,Open,M,201.85,120.2,213.19,535.24,SBD,Single-ply,6
Robert Reinstra,75,Open,M,206.38,131.54,197.31,535.24,SBD,Single-ply,7
Randy Jakybic,75,Open,M,190.51,108.86,199.58,498.95,SBD,Single-ply,8
RG Luckow,75,Open,M,167.83,127.01,195.04,489.88,SBD,Single-ply,9
Lori Verhagen,75,Open,F,136.08,97.52,147.42,381.02,SBD,Single-ply,10
Mary S. Grace,75,Open,F,124.74,70.31,142.88,337.93,SBD,Single-ply,11
Jyll Anderson,75,Open,F,120.2,52.16,65.77,238.14,SBD,Single-ply,12
John Bejin,82.5,Open,M,233.6,149.69,285.76,669.05,SBD,Single-ply,1
Fred Santelli,82.5,Open,M,258.55,142.88,256.28,657.71,SBD,Single-ply,2
Jim Tadder,82.5,Open,M,260.82,165.56,229.06,655.44,SBD,Single-ply,3
Marty Becker,82.5,Open,M,249.48,145.15,244.94,639.57,SBD,Single-ply,4
Dave Gervasi,82.5,Open,M,208.65,136.08,229.06,573.8,SBD,Single-ply,5
George Villarreal,82.5,Open,M,208.65,124.74,210.92,544.31,SBD,Single-ply,6
Beth Yunger,82.5,Open,F,127.01,63.5,158.76,349.27,SBD,Single-ply,7
Jeff Lepak,82.5,Open,M,65.77,199.58,65.77,331.12,SBD,Single-ply,8
Bryan Foerst,82.5,Open,M,258.55,,,,SBD,Single-ply,DQ
Tony Packard,90,Open,M,288.03,163.29,263.08,714.41,SBD,Single-ply,1
Jim Splittgerber,90,Open,M,263.08,163.29,272.16,698.53,SBD,Single-ply,2
Ray VanWey,90,Open,M,247.21,147.42,260.82,655.44,SBD,Single-ply,3
Mike Huc,90,Open,M,254.01,142.88,247.21,644.1,SBD,Single-ply,4
Scott Antczak,90,Open,M,244.94,133.81,244.94,623.69,SBD,Single-ply,5
T. Henrickson,90,Open,M,233.6,145.15,226.8,605.55,SBD,Single-ply,6
Scott Hubert,90,Open,M,188.24,147.42,244.94,580.6,SBD,Single-ply,7
Tim Guillette,90,Open,M,229.06,124.74,226.8,580.6,SBD,Single-ply,8
James Zarling,90,Open,M,226.8,127.01,226.8,580.6,SBD,Single-ply,9
Tom Poplawski,90,Open,M,158.76,156.49,229.06,544.31,SBD,Single-ply,10
Dan Balk,90,Open,M,215.46,97.52,213.19,526.17,SBD,Single-ply,11
Michael Italiano,90,Open,M,192.78,138.35,192.78,523.9,SBD,Single-ply,12
Tom Gregor,90,Open,M,208.65,,,,SBD,Single-ply,DQ
Randy Ledvina,90,Open,M,,,,,SBD,Single-ply,DQ
Don DeSjarlais,90,Open,M,,,,,SBD,Single-ply,DQ
Bill Arnold,90,Open,M,,,,,SBD,Single-ply,DQ
Dan Sperger,100,Open,M,290.3,190.51,294.84,775.64,SBD,Single-ply,1
John Goulet,100,Open,M,272.16,190.51,267.62,730.28,SBD,Single-ply,2
Brad Hanewall,100,Open,M,254.01,172.37,281.23,707.6,SBD,Single-ply,3
David Damman,100,Open,M,242.67,113.4,288.03,644.1,SBD,Single-ply,4
Rich Henry,100,Open,M,251.74,145.15,229.06,625.96,SBD,Single-ply,5
Brian Briggs,100,Open,M,199.58,115.67,210.92,526.17,SBD,Single-ply,6
Paul Immekus,100,Open,M,,,,,SBD,Single-ply,DQ
Bryan Aiello,110,Open,M,317.52,185.97,306.18,809.66,SBD,Single-ply,1
John Brace,110,Open,M,303.91,213.19,267.62,784.72,SBD,Single-ply,2
Dave Marino,110,Open,M,274.42,208.65,272.16,755.23,SBD,Single-ply,3
David Neuber,110,Open,M,272.16,181.44,267.62,721.21,SBD,Single-ply,4
Cyndi Regan,110,Open,F,222.26,88.45,174.63,485.34,SBD,Single-ply,5
John Volkman,110,Open,M,,,,,SBD,Single-ply,DQ
John Brick,125,Open,M,326.59,195.04,288.03,809.66,SBD,Single-ply,1
D. Splittgerber,125,Open,M,294.84,190.51,288.03,773.38,SBD,Single-ply,2
Jeff Tracy,125,Open,M,249.48,154.22,274.42,678.12,SBD,Single-ply,3
Paul Lukens,125,Open,M,251.74,163.29,260.82,675.85,SBD,Single-ply,4
Ray Bruch,125,Open,M,215.46,145.15,226.8,587.4,SBD,Single-ply,5
Ray Harvey,125+,Open,M,294.84,185.97,249.48,730.28,SBD,Single-ply,1
Rich Sadowski,125+,Open,M,278.96,131.54,260.82,671.32,SBD,Single-ply,2
Roger Volland,125+,Open,M,,,,,SBD,Single-ply,DQ
