Place,Name,Sex,Age,Division,Equipment,BodyweightKg,WeightClassKg,Best3SquatKg,Best3BenchKg,Best3DeadliftKg,TotalKg,Squat1Kg,Squat2Kg,Squat3Kg,Squat4Kg,Bench1Kg,Bench2Kg,Bench3Kg,Bench4Kg,Deadlift1Kg,Deadlift2Kg,Deadlift3Kg,Deadlift4Kg,Event
1,Patrick Reiser,M,23,Juniors,Raw,79.6,82.5,,160,,160,,,,,145,155,160,-165.5,,,,,B
1,Michäel Biolley,M,21,Juniors,Raw,95.3,100,,150,,150,,,,,140,145,150,,,,,,B
1,Nicola Marinacci,M,28,Open,Raw,89.9,90,,140,,140,,,,,140,-145,-145,,,,,,B
1,Mirko Novakovic,M,39,Open,Raw,76.9,82.5,,115,,115,,,,,115,-120,-120,,,,,,B
2,Rabar Kafaf,M,28,Open,Raw,87.2,90,,117.5,,117.5,,,,,117.5,-120,-120,,,,,,B
DQ,Christophe Crettenand,M,18,T18-19,Raw,81.5,82.5,,,,,,,,,-135,-135,-135,,,,,,B
1,Julien Girardin,M,23,Juniors,Raw,104.8,110,,210,,210,,,,,210,-220,-220,,,,,,B
1,Juniku Artor,M,23,Juniors,Raw,73,75,,137.5,,137.5,,,,,135,-137.5,137.5,,,,,,B
2,Aziz Boussalem,M,21,Juniors,Raw,73.4,75,,127.5,,127.5,,,,,125,127.5,-130,,,,,,B
2,Mathias Steiner,M,22,Juniors,Raw,82.5,82.5,,135,,135,,,,,125,130,135,,,,,,B
DQ,David Gillioz,M,21,Juniors,Raw,71.4,75,,,,,,,,,-125,-125,-125,,,,,,B
1,Gaby Stacher,F,30,Open,Raw,58.3,60,,75,,75,,,,,75,-80,-80,,,,,,B
1,Daniel Meier,M,38,Open,Raw,128.8,140,,240,,240,,,,,-240,240,-245,,,,,,B
2,Peter Diethalm,M,36,Open,Raw,117.7,125,,225,,225,,,,,210,220,225,-227.5,,,,,B
3,Ronnie Eberhart,M,35,Open,Raw,119.1,125,,210,,210,,,,,200,210,-220,,,,,,B
1,David Kalbermatten,M,36,Open,Raw,101.4,110,,200,,200,,,,,195,200,,,,,,,B
1,Matthias Krismer,M,31,Open,Raw,96.2,100,,175,,175,,,,,165,-175,175,,,,,,B
2,Erich Steiner,M,38,Open,Raw,90.7,100,,150,,150,,,,,150,-160,-160,,,,,,B
2,Sascha Plaschy,M,29,Open,Raw,104.6,110,,150,,150,,,,,140,150,-160,,,,,,B
1,Urs Auf der Maur,M,42,M40-44,Raw,101.5,110,,180,,180,,,,,180,-200,-200,,,,,,B
1,Heinz Nobel,M,58,M55-59,Raw,82.1,82.5,,117.5,,117.5,,,,,110,117.5,-122.5,,,,,,B
2,Oliver Groen,M,40,M40-44,Raw,107.7,110,,172.5,,172.5,,,,,170,172.5,-175,-175,,,,,B
DQ,Michel Brügger,M,40,M40-44,Raw,113.7,125,,,,,,,,,-175,-180,-180,,,,,,B
1,Mirko Jentzsch,M,35,Open,Raw,116.9,125,,225,,225,,,,,215,220,225,,,,,,B
1,Jean-Pierre Aymon,M,56,M55-59,Single-ply,92.2,100,,197.5,,197.5,,,,,190,197.5,-200,,,,,,B
1,Claudio Rajtmajer,M,42,M40-44,Single-ply,111.6,125,,212.5,,212.5,,,,,212.5,-222.5,,,,,,,B
2,Cyril Gosteli,M,44,M40-44,Single-ply,123,125,,195,,195,,,,,180,195,-210,,,,,,B
1,Daniel Oertig,M,26,Open,Single-ply,96.6,100,,180,,180,,,,,180,-190,-190,,,,,,B
1,Hansjürg Kälin,M,40,M40-44,Single-ply,93.6,100,,170,,170,,,,,165,170,,,,,,,B
1,Thierry Rouiller,M,24,Open,Single-ply,80.4,82.5,,130,,130,,,,,130,-140,-140,,,,,,B
DQ,Urs Auf der Maur,M,42,M40-44,Single-ply,101.5,110,,,,,,,,,-230,-230,-230,,,,,,B
DQ,Mario Volken,M,44,M40-44,Single-ply,103.5,110,,,,,,,,,-240,,,,,,,,B
1,David Eberhart,M,17,T16-17,Raw,99.2,100,220,132.5,222.5,575,210,215,220,-225,125,130,132.5,-135,215,220,222.5,-225,SBD
1,Kevin Gundi,M,23,Juniors,Raw,99.7,100,210,135,230,575,-210,-210,210,,125,130,135,137.5,215,225,230,235,SBD
1,Christophe Crettenand,M,18,T18-19,Raw,81.5,82.5,115,135,192.5,442.5,115,-122.5,-130,,125,132.5,135,,170,185,192.5,197.5,SBD
2,Michäel Biolley,M,21,Juniors,Raw,95.3,100,130,155,160,445,120,130,-145,,140,150,155,,130,160,-190,,SBD
1,Marcel Ingold,M,63,M60-64,Raw,69.8,75,150,87.5,170,407.5,130,140,150,,85,87.5,-90,,150,162.5,170,,SBD
1,Robert Kurmann,M,30,Open,Raw,95.8,100,230,170,280,680,-220,230,-250,,160,170,-180,,280,-290,-290,,SBD
1,John Gostell,M,70,M70-74,Raw,90.3,100,110,87.5,135,332.5,100,110,-115,,80,85,87.5,,120,130,135,,SBD
DQ,Julia Kaya,F,31,Open,Raw,83.9,90,,,,,-130,-140,-150,,,,,,,,,,SBD
1,Hansjürg Kälin,M,40,M40-44,Single-ply,93.6,100,280,175,280,735,-260,270,280,,160,170,175,,270,280,-290,,SBD
1,Erich Steffen,M,33,Open,Single-ply,74.4,75,152.5,107.5,190,450,130,145,152.5,,100,107.5,-110,,170,177.5,190,,SBD
DQ,Hatziemanuel George,M,28,Open,Single-ply,82.5,82.5,,,,,-240,-245,-245,,,,,,,,,,SBD
DQ,Patrick Eyer,M,25,Open,Single-ply,117,125,,,,,-285,-285,-285,,,,,,,,,,SBD
1,Patricia Friedrich,F,33,Open,Single-ply,66.3,67.5,145,82.5,140,367.5,135,-145,145,,70,77.5,82.5,,120,130,140,,SBD
