Division,WeightClassKg,Place,Name,Team,BodyweightKg,Best3SquatKg,Best3BenchKg,Best3DeadliftKg,TotalKg,Equipment,Event,Sex,BirthDate
Boys,51.71,1,Aaron Morin,Edinburg North,51.26,133.81,86.18,165.56,385.55,Single-ply,SBD,M,
Boys,51.71,2,Héctor Ramírez,Roma,50.89,142.88,88.45,149.69,381.02,Single-ply,SBD,M,
Boys,51.71,3,Damain Reyes,Edinburg,50.53,113.4,83.91,149.69,347,Single-ply,SBD,M,
Boys,51.71,DQ,Daniel Rios,Roma,51.26,113.4,,,,Single-ply,SBD,M,
Boys,55.79,1,Fred Mares,Edinburg,55.16,138.35,106.59,183.7,428.64,Single-ply,SBD,M,
Boys,55.79,2,Richard Rodriguez,Edinburg,54.79,142.88,83.91,156.49,383.29,Single-ply,SBD,M,
Boys,59.87,1,AJ Trevino,Edinburg,59.69,201.85,133.81,197.31,532.97,Single-ply,SBD,M,
Boys,59.87,2,Adrian Garcia,Edinburg Economedes,59.78,201.85,115.67,188.24,505.76,Single-ply,SBD,M,
Boys,59.87,3,Jose Garcia #9,Edinburg North,58.15,142.88,102.06,172.37,417.3,Single-ply,SBD,M,
Boys,67.13,1,Jose Soto,Edinburg Economedes,62.96,249.48,154.22,210.92,614.62,Single-ply,SBD,M,
Boys,67.13,2,Robert Solis,Edinburg Economedes,66.77,163.29,97.52,215.46,476.27,Single-ply,SBD,M,
Boys,67.13,3,Ej Garcia,Rio Grande City,67.13,183.7,124.74,165.56,474,Single-ply,SBD,M,
Boys,67.13,4,Joseph Navarro,Edinburg Vela,65.95,161.03,99.79,183.7,444.52,Single-ply,SBD,M,
Boys,67.13,5,Javier Renteria,Edinburg North,65.59,151.95,104.33,174.63,430.91,Single-ply,SBD,M,
Boys,67.13,6,Carlos Guzman,Edinburg Vela,67.13,154.22,115.67,156.49,426.38,Single-ply,SBD,M,
Boys,67.13,7,Brandon Arredondo,Rio Grande City,66.5,131.54,83.91,120.2,335.66,Single-ply,SBD,M,
Boys,67.13,8,Esai Pacheco,Edinburg Vela,64.59,104.33,79.38,115.67,299.37,Single-ply,SBD,M,
Boys,67.13,DQ,David Vidaurri,Edinburg Vela,63.96,99.79,,,,Single-ply,SBD,M,
Boys,74.84,1,Michael Garcia,Edinburg Vela,72.94,229.06,145.15,215.46,589.67,Single-ply,SBD,M,
Boys,74.84,2,Miguel Castillo,Edinburg Vela,73.21,235.87,138.35,215.46,589.67,Single-ply,SBD,M,
Boys,74.84,3,Eduardo Mujica,Edinburg,72.03,201.85,142.88,217.72,562.45,Single-ply,SBD,M,
Boys,74.84,4,Juan Garza,Edinburg,74.12,192.78,129.27,201.85,523.9,Single-ply,SBD,M,
Boys,74.84,5,Brian Pena,Rio Grande City,70.94,204.12,117.93,199.58,521.63,Single-ply,SBD,M,
Boys,74.84,6,Brandon Ramirez,Edinburg North,73.75,167.83,120.2,183.7,471.74,Single-ply,SBD,M,
Boys,74.84,7,Bryan Ramirez,Edinburg North,71.58,167.83,92.99,195.04,455.86,Single-ply,SBD,M,
Boys,74.84,8,Michael Thompson,Edinburg Vela,69.22,142.88,86.18,183.7,412.77,Single-ply,SBD,M,
Boys,74.84,9,Juan Cano,Edinburg Vela,71.76,131.54,86.18,176.9,394.63,Single-ply,SBD,M,
Boys,74.84,10,Jaime Garza,Rio Grande City,72.57,138.35,90.72,133.81,362.87,Single-ply,SBD,M,
Boys,82.1,1,Damian Gutierrez,Roma,82.1,222.26,147.42,235.87,605.55,Single-ply,SBD,M,
Boys,82.1,2,Alex Cortez,Edinburg North,79.2,233.6,142.88,226.8,603.28,Single-ply,SBD,M,
Boys,82.1,3,Jesus Sepulveda,Edinburg Economedes,78.02,226.8,161.03,201.85,589.67,Single-ply,SBD,M,
Boys,82.1,4,Jose Rodriguez #10,Rio Grande City,78.38,185.97,140.61,206.38,532.97,Single-ply,SBD,M,
Boys,82.1,5,Robert Ortiz,Edinburg North,80.1,192.78,115.67,201.85,510.29,Single-ply,SBD,M,
Boys,82.1,6,Isreal Escabedo,Rio Grande City,77.11,172.37,108.86,190.51,471.74,Single-ply,SBD,M,
Boys,82.1,7,Hector Rivera,Rio Grande City,76.2,161.03,108.86,170.1,439.98,Single-ply,SBD,M,
Boys,82.1,8,Elijah Soliz,Edinburg North,75.39,154.22,106.59,167.83,428.64,Single-ply,SBD,M,
Boys,82.1,DQ,Malachai Ortega,Edinburg North,77.02,170.1,102.06,,,Single-ply,SBD,M,
Boys,89.81,1,Jordan Rock,Roma,89.72,226.8,111.13,215.46,553.38,Single-ply,SBD,M,
Boys,99.79,1,Robert Ramos,Roma,98.88,249.48,129.27,226.8,605.55,Single-ply,SBD,M,
Boys,99.79,2,Oscar Cruz,Edinburg,96.8,231.33,142.88,229.06,603.28,Single-ply,SBD,M,
Boys,99.79,3,Dylan De La Garza,Edinburg Vela,96.16,231.33,136.08,226.8,594.21,Single-ply,SBD,M,
Boys,99.79,4,Zac Compean,Rio Grande City,96.07,226.8,147.42,217.72,591.94,Single-ply,SBD,M,
Boys,99.79,5,Isaiah Cepeda,Edinburg North,92.71,165.56,106.59,183.7,455.86,Single-ply,SBD,M,
Boys,99.79,DQ,Justin Valdez,Edinburg Vela,98.34,265.35,,,,Single-ply,SBD,M,
Boys,99.79,DQ,Jose Lopez,Roma,98.61,294.84,138.35,,,Single-ply,SBD,M,
Boys,109.77,1,Frankie Coronado,Edinburg,103.42,274.42,176.9,240.4,691.73,Single-ply,SBD,M,
Boys,109.77,2,Joseph Guerra,Edinburg Economedes,105.51,249.48,158.76,244.94,653.17,Single-ply,SBD,M,
Boys,109.77,3,Kris Garza,Rio Grande City,108.05,233.6,142.88,224.53,601.01,Single-ply,SBD,M,
Boys,109.77,4,Jesus Garcia #11,Roma,105.87,233.6,120.2,213.19,566.99,Single-ply,SBD,M,
Boys,124.74,1,Laurencio Lopez,Roma,116.21,256.28,154.22,233.6,644.1,Single-ply,SBD,M,
Boys,124.74,2,Akileo Guerra,Roma,120.84,249.48,181.44,213.19,644.1,Single-ply,SBD,M,
Boys,124.74,3,Nathian Garza,Edinburg,115.03,222.26,138.35,201.85,562.45,Single-ply,SBD,M,
Boys,124.74+,1,Genaro Paez,Edinburg,157.76,267.62,154.22,244.94,666.78,Single-ply,SBD,M,
Boys,124.74+,2,Humberto Garcia,Edinburg,141.25,233.6,129.27,172.37,535.24,Single-ply,SBD,M,
Boys,124.74+,3,Ernesto Sustaita,Edinburg North,132.18,208.65,115.67,201.85,526.17,Single-ply,SBD,M,
Boys,124.74+,DQ,Marco Gamez,Edinburg Vela,129.55,201.85,,,,Single-ply,SBD,M,
