Division,WeightClassKg,Place,Name,Team,BodyweightKg,Best3SquatKg,Best3BenchKg,Best3DeadliftKg,TotalKg,Equipment,Event,Sex,BirthDate
Boys,51.71,1,Jason Ramirez,Levelland,48.9,142.88,97.52,145.15,385.55,Single-ply,SBD,M,
Boys,51.71,2,Rj Lopez,Levelland,51.26,115.67,79.38,129.27,324.32,Single-ply,SBD,M,
Boys,51.71,3,Bobby Bowman,Whiteface,45.72,102.06,54.43,102.06,258.55,Single-ply,SBD,M,
Boys,51.71,4,Riley Rodriguez,Whiteface,51.62,95.25,54.43,97.52,247.21,Single-ply,SBD,M,
Boys,51.71,5,Marcus Gonzales,Plains,51.35,68.04,43.09,95.25,206.38,Single-ply,SBD,M,
Boys,51.71,6,Dagon Rangel,Whiteface,50.8,68.04,45.36,81.65,195.04,Single-ply,SBD,M,
Boys,55.79,1,Michael Bautista,Friona,54.25,127.01,79.38,140.61,347,Single-ply,SBD,M,
Boys,55.79,2,Ethan Martinez,Wolfforth Frenship,55.34,127.01,79.38,140.61,347,Single-ply,SBD,M,
Boys,55.79,3,Jovany Salazar,Bovina,55.79,113.4,63.5,136.08,312.98,Single-ply,SBD,M,
Boys,55.79,4,Ceasar Amaya,Bovina,55.25,108.86,72.57,127.01,308.44,Single-ply,SBD,M,
Boys,55.79,5,Patricio Garcia,Brownfield,55.52,115.67,58.97,120.2,294.84,Single-ply,SBD,M,
Boys,55.79,6,Calvin Carpenter,Lubbock All Saints School,54.43,90.72,56.7,113.4,260.82,Single-ply,SBD,M,
Boys,55.79,7,Cason Couch,Whiteface,52.44,77.11,45.36,77.11,199.58,Single-ply,SBD,M,
Boys,59.87,1,Mario Bautista,Friona,59.87,158.76,102.06,158.76,419.57,Single-ply,SBD,M,
Boys,59.87,2,Giovanny Ponce,Friona,58.24,167.83,97.52,111.13,376.48,Single-ply,SBD,M,
Boys,59.87,3,Miguel López,Bovina,56.61,106.59,72.57,167.83,347,Single-ply,SBD,M,
Boys,59.87,4,Ryan Gamez,Brownfield,59.78,142.88,72.57,131.54,347,Single-ply,SBD,M,
Boys,67.13,1,Jagger Lopez,Levelland,66.59,158.76,111.13,174.63,444.52,Single-ply,SBD,M,
Boys,67.13,2,Caleb Hillin,Lubbock All Saints School,64.77,136.08,79.38,170.1,385.55,Single-ply,SBD,M,
Boys,67.13,3,Jhoan Menjivar,Plains,60.96,133.81,74.84,154.22,362.87,Single-ply,SBD,M,
Boys,67.13,4,Damian Ussery,Brownfield,61.42,127.01,86.18,145.15,358.34,Single-ply,SBD,M,
Boys,67.13,5,Braden Conn,Brownfield,64.5,113.4,56.7,113.4,283.5,Single-ply,SBD,M,
Boys,74.84,1,Pancho Garza,Brownfield,74.75,170.1,108.86,170.1,449.06,Single-ply,SBD,M,
Boys,74.84,2,Kevin Lucatero,Friona,74.03,145.15,104.33,188.24,437.72,Single-ply,SBD,M,
Boys,74.84,3,Aaron Salinas,Friona,68.67,176.9,86.18,165.56,428.64,Single-ply,SBD,M,
Boys,74.84,4,Tony Rodriguez #4,Friona,74.75,165.56,90.72,165.56,421.84,Single-ply,SBD,M,
Boys,74.84,5,Nathan Guevarra,Bovina,71.21,117.93,102.06,151.95,371.95,Single-ply,SBD,M,
Boys,74.84,6,Jayden Johns,Wolfforth Frenship,73.12,136.08,77.11,158.76,371.95,Single-ply,SBD,M,
Boys,74.84,7,Noah Rendon,Whiteface,74.03,140.61,90.72,136.08,367.41,Single-ply,SBD,M,
Boys,74.84,8,Travan Miller,Brownfield,72.21,136.08,68.04,158.76,362.87,Single-ply,SBD,M,
Boys,74.84,9,Fernando Martinez #5,Bovina,69.04,122.47,72.57,161.03,356.07,Single-ply,SBD,M,
Boys,74.84,10,Isaac Olmos,Friona,69.76,136.08,77.11,136.08,349.27,Single-ply,SBD,M,
Boys,74.84,11,Eusubio Garcia,Brownfield,73.21,127.01,72.57,136.08,335.66,Single-ply,SBD,M,
Boys,74.84,12,Zach Mendez,Plains,73.66,113.4,61.23,111.13,285.76,Single-ply,SBD,M,
Boys,82.1,1,Rogelio Garza-Delao,Brownfield,77.56,163.29,102.06,181.44,446.79,Single-ply,SBD,M,
Boys,82.1,2,Matthew Dimas,Friona,80.65,174.63,95.25,167.83,437.72,Single-ply,SBD,M,
Boys,82.1,3,Harrison Weeks,Plains,75.39,163.29,81.65,176.9,421.84,Single-ply,SBD,M,
Boys,82.1,4,Luke Brooker,Whiteface,80.65,158.76,97.52,142.88,399.16,Single-ply,SBD,M,
Boys,89.81,1,Cade Reynolds,Plains,84.28,161.03,86.18,172.37,419.57,Single-ply,SBD,M,
Boys,89.81,2,Mason Dawson,Lubbock All Saints School,84.01,133.81,68.04,147.42,349.27,Single-ply,SBD,M,
Boys,89.81,DQ,Brooks Burns,Lubbock All Saints School,85.46,115.67,72.57,,,Single-ply,SBD,M,
Boys,89.81,DQ,Darian DeLaRosa,Bovina,84.73,181.44,90.72,,,Single-ply,SBD,M,
Boys,99.79,DQ,Misael Casteneda,Whiteface,99.43,36.29,,,,Single-ply,SBD,M,
Boys,109.77,1,Kesean Dever,Brownfield,108.23,208.65,117.93,219.99,546.58,Single-ply,SBD,M,
Boys,109.77,2,Aaron Rodriguez,Friona,106.59,219.99,111.13,167.83,498.95,Single-ply,SBD,M,
Boys,109.77,3,Frank Perez,Friona,104.14,190.51,108.86,154.22,453.59,Single-ply,SBD,M,
Boys,109.77,4,Angel Lazano,Plains,104.05,151.95,86.18,170.1,408.23,Single-ply,SBD,M,
Boys,109.77,5,Zed Mendez,Whiteface,100.61,151.95,97.52,142.88,392.36,Single-ply,SBD,M,
Boys,109.77,6,Mason Lazos,Plains,105.78,140.61,74.84,161.03,376.48,Single-ply,SBD,M,
Boys,124.74,1,Jake Padilla,Friona,112.94,229.06,142.88,213.19,585.13,Single-ply,SBD,M,
Boys,124.74,2,Chris Lea,Wolfforth Frenship,120.38,197.31,102.06,197.31,496.68,Single-ply,SBD,M,
Boys,124.74,3,Richard Badillo,Plains,115.85,183.7,81.65,172.37,437.72,Single-ply,SBD,M,
Boys,139.71,1,John Rodriguez,Levelland,136.53,204.12,129.27,170.1,503.49,Single-ply,SBD,M,
Boys,139.71,2,Blaize Whitaker,Wolfforth Frenship,126.73,158.76,127.01,210.92,496.68,Single-ply,SBD,M,
Boys,139.71,3,Fernando Mendez,Brownfield,125.92,188.24,108.86,188.24,485.34,Single-ply,SBD,M,
Boys,139.71,4,Joshua Rangel,Wolfforth Frenship,135.62,165.56,113.4,199.58,478.54,Single-ply,SBD,M,
Boys,139.71+,1,Sean Castillo,Brownfield,213.64,213.19,127.01,165.56,505.76,Single-ply,SBD,M,
Boys,,NS,Riley Garcia,Wolfforth Frenship,,,,,,Single-ply,SBD,M,
Boys,,NS,Jonathan Cavarrubias,Wolfforth Frenship,,,,,,Single-ply,SBD,M,
Boys,,NS,Novy Vela,Wolfforth Frenship,,,,,,Single-ply,SBD,M,
Boys,,NS,Jerimiah Washington,Wolfforth Frenship,,,,,,Single-ply,SBD,M,
Boys,,NS,Aiden Herrera,Wolfforth Frenship,,,,,,Single-ply,SBD,M,
Boys,,NS,Matthew Landin,Wolfforth Frenship,,,,,,Single-ply,SBD,M,
Boys,,NS,Devon Campbell,Whiteface,,,,,,Single-ply,SBD,M,
