Division,WeightClassKg,Place,Name,Team,BodyweightKg,Best3SquatKg,Best3BenchKg,Best3DeadliftKg,TotalKg,Equipment,Event,Sex
Boys,51.71,1,Steven Pham,Sunnyvale,51.53,102.06,58.97,140.61,301.64,Single-ply,SBD,M
Boys,51.71,2,Jakovan Williams,Nacogdoches,50.89,108.86,54.43,136.08,299.37,Single-ply,SBD,M
Boys,51.71,3,Anton Sanders,Lindale,48.44,90.72,49.9,90.72,231.33,Single-ply,SBD,M
Boys,51.71,DQ,Cullin Chambers,Beckville,45.99,,,,,Single-ply,SBD,M
Boys,51.71,DQ,Reese Turner,Tyler Chapel Hill,51.44,136.08,70.31,,,Single-ply,SBD,M
Boys,55.79,1,Gage Goglio,Lindale,55.43,136.08,74.84,136.08,347,Single-ply,SBD,M
Boys,55.79,2,Christian Fisk,Longview Pine Tree,55.16,117.93,65.77,136.08,319.78,Single-ply,SBD,M
Boys,59.87,3,Thein Tran,Sunnyvale,56.02,117.93,58.97,131.54,308.44,Single-ply,SBD,M
Boys,59.87,4,Darrell Taylor,Marshall,55.97,97.52,61.23,131.54,290.3,Single-ply,SBD,M
Boys,55.79,5,David Blackwell,Nacogdoches,53.61,122.47,47.63,108.86,278.96,Single-ply,SBD,M
Boys,55.79,6,Camron King,Marshall,53.07,131.54,47.63,90.72,269.89,Single-ply,SBD,M
Boys,55.79,7,Scott Dudley,Paris,52.44,90.72,47.63,90.72,229.06,Single-ply,SBD,M
Boys,59.87,1,Micah Ethington,Nacogdoches,58.51,156.49,77.11,154.22,387.82,Single-ply,SBD,M
Boys,59.87,2,Forest Lemon,Nacogdoches,59.33,145.15,81.65,158.76,385.55,Single-ply,SBD,M
Boys,59.87,3,Brooks Conlee,Bullard,58.6,136.08,68.04,158.76,362.87,Single-ply,SBD,M
Boys,59.87,4,Ruben Lopez,Lindale,59.15,136.08,74.84,142.88,353.8,Single-ply,SBD,M
Boys,59.87,5,Nathan Evans,Lindale,59.51,133.81,61.23,147.42,342.46,Single-ply,SBD,M
Boys,59.87,6,Jyran Shaw,Alto,59.69,145.15,65.77,127.01,337.93,Single-ply,SBD,M
Boys,59.87,7,Justin Johnson,Mount Enterprise,58.97,113.4,79.38,136.08,328.85,Single-ply,SBD,M
Boys,59.87,8,Paco Chavez,Laird Hill Leveretts Chapel,58.6,90.72,54.43,111.13,256.28,Single-ply,SBD,M
Boys,59.87,9,Enrique Casimiro,Longview Pine Tree,58.33,102.06,52.16,95.25,249.48,Single-ply,SBD,M
Boys,74.84,1,Clem Bailey,Paris,67.31,185.97,140.61,215.46,542.04,Single-ply,SBD,M
Boys,67.13,2,Edgar Simmons,Marshall,63.32,179.17,106.59,170.1,455.86,Single-ply,SBD,M
Boys,67.13,3,Javonte Parker,Marshall,61.14,174.63,79.38,176.9,430.91,Single-ply,SBD,M
Boys,67.13,4,Justin Vanderwater,Laird Hill Leveretts Chapel,62.23,142.88,111.13,172.37,426.38,Single-ply,SBD,M
Boys,67.13,5,Trevor Bell,Sunnyvale,66.22,170.1,74.84,170.1,415.04,Single-ply,SBD,M
Boys,67.13,6,Brett Martin,Troup,66.41,145.15,86.18,161.03,392.36,Single-ply,SBD,M
Boys,67.13,7,Johnathon Colteaux,Longview Pine Tree,64.32,99.79,90.72,163.29,353.8,Single-ply,SBD,M
Boys,67.13,8,Colten Hinson,Alto,66.5,102.06,58.97,117.93,278.96,Single-ply,SBD,M
Boys,67.13,9,Jeff Ortiz,Bullard,61.05,99.79,63.5,97.52,260.82,Single-ply,SBD,M
Boys,67.13,10,Dabarie Johnson,Paris,64.5,72.57,68.04,111.13,251.74,Single-ply,SBD,M
Boys,67.13,DQ,Justin Bledsoe,Longview Pine Tree,64.5,145.15,97.52,,,Single-ply,SBD,M
Boys,74.84,1,Dominick Sanders,Paris,74.57,226.8,127.01,247.21,601.01,Single-ply,SBD,M
Boys,82.1,2,Houston Alexander,Bullard,75.02,199.58,131.54,195.04,526.17,Single-ply,SBD,M
Boys,74.84,3,Joseph Clark,Tyler Chapel Hill,74.39,185.97,122.47,204.12,512.56,Single-ply,SBD,M
Boys,74.84,4,James Seekford,Lindale,71.4,199.58,108.86,201.85,510.29,Single-ply,SBD,M
Boys,74.84,5,Abdul Khalaf,Sunnyvale,73.57,188.24,117.93,183.7,489.88,Single-ply,SBD,M
Boys,74.84,6,Austin Skelton,Bullard,72.21,181.44,97.52,204.12,483.08,Single-ply,SBD,M
Boys,74.84,7,Nolan Allen,Marshall,70.58,204.12,90.72,185.97,480.81,Single-ply,SBD,M
Boys,74.84,8,Dondrell Hawkins,Paris,68.4,192.78,104.33,174.63,471.74,Single-ply,SBD,M
Boys,74.84,9,Kensha Talley,Marshall,70.49,176.9,90.72,197.31,464.93,Single-ply,SBD,M
Boys,74.84,10,Kadarius Corprew,Paris,73.3,197.31,97.52,167.83,462.66,Single-ply,SBD,M
Boys,82.1,11,Devin DeLeon,Sunnyvale,74.93,151.95,108.86,199.58,460.4,Single-ply,SBD,M
Boys,74.84,12,Shane Stanley,Mount Enterprise,72.76,188.24,104.33,165.56,458.13,Single-ply,SBD,M
Boys,74.84,13,Paulo Cagol,Marshall,73.57,174.63,99.79,183.7,458.13,Single-ply,SBD,M
Boys,74.84,14,Travis Johnson,Tyler Chapel Hill,73.84,172.37,88.45,174.63,435.45,Single-ply,SBD,M
Boys,74.84,15,Collin Hester,Lindale,74.75,156.49,88.45,188.24,433.18,Single-ply,SBD,M
Boys,74.84,16,Matthew Morris,Laird Hill Leveretts Chapel,72.03,170.1,88.45,165.56,424.11,Single-ply,SBD,M
Boys,74.84,17,Ronnie Roberts,Nacogdoches,72.76,151.95,97.52,170.1,419.57,Single-ply,SBD,M
Boys,74.84,18,Tj Griffin,Lindale,70.22,158.76,86.18,165.56,410.5,Single-ply,SBD,M
Boys,74.84,19,Blake Narrell,Troup,71.76,147.42,102.06,158.76,408.23,Single-ply,SBD,M
Boys,74.84,20,Kelvin Fitzpatrick,Longview Pine Tree,68.76,145.15,83.91,176.9,405.97,Single-ply,SBD,M
Boys,82.1,21,Jeremiah Irons,Lindale,75.02,161.03,79.38,165.56,405.97,Single-ply,SBD,M
Boys,74.84,22,Clayton Puckett,Sunnyvale,69.94,136.08,90.72,156.49,383.29,Single-ply,SBD,M
Boys,74.84,23,Dakota Hiler,Mount Enterprise,68.49,113.4,95.25,138.35,347,Single-ply,SBD,M
Boys,74.84,24,Bo Hamby,Bullard,72.94,117.93,74.84,136.08,328.85,Single-ply,SBD,M
Boys,74.84,25,Alijah Clay,Alto,67.68,124.74,83.91,106.59,315.25,Single-ply,SBD,M
Boys,74.84,26,Kolton Turner,Laird Hill Leveretts Chapel,74.48,111.13,68.04,124.74,303.91,Single-ply,SBD,M
Boys,74.84,27,Kendall Alexander,Paris,72.57,102.06,54.43,131.54,288.03,Single-ply,SBD,M
Boys,74.84,28,Ryan O'Quinn,Bullard,67.59,102.06,61.23,122.47,285.76,Single-ply,SBD,M
Boys,74.84,29,Gonzalo Tellez,Alto,67.68,108.86,54.43,120.2,283.5,Single-ply,SBD,M
Boys,74.84,30,Dalton Heithoff,Bullard,71.12,90.72,70.31,115.67,276.69,Single-ply,SBD,M
Boys,74.84,31,Kyler Whatley,Bullard,70.22,90.72,61.23,113.4,265.35,Single-ply,SBD,M
Boys,74.84,32,JR Rodgers,Laird Hill Leveretts Chapel,71.3,20.41,104.33,20.41,145.15,Single-ply,SBD,M
Boys,74.84,DQ,Drew Gurley,Bullard,73.3,,,,,Single-ply,SBD,M
Boys,82.1,1,Zack Holladay,Bullard,81.74,226.8,127.01,226.8,580.6,Single-ply,SBD,M
Boys,82.1,2,Tyraiel Hart,Tyler Chapel Hill,79.92,222.26,113.4,235.87,571.53,Single-ply,SBD,M
Boys,82.1,3,Adam Galza,Lindale,81.01,233.6,127.01,204.12,564.72,Single-ply,SBD,M
Boys,82.1,4,Ryan Moss,Sunnyvale,78.65,181.44,95.25,199.58,476.27,Single-ply,SBD,M
Boys,82.1,5,Brady Wilbanks,Longview Pine Tree,79.2,174.63,131.54,167.83,474,Single-ply,SBD,M
Boys,82.1,6,Keyotrick Brown,Longview Pine Tree,80.47,188.24,102.06,181.44,471.74,Single-ply,SBD,M
Boys,82.1,7,Dakota Porter,Mount Enterprise,77.93,181.44,102.06,181.44,464.93,Single-ply,SBD,M
Boys,82.1,8,Rocky Greenwalt,Bullard,78.56,181.44,90.72,163.29,435.45,Single-ply,SBD,M
Boys,82.1,9,Mark Oberman,Laird Hill Leveretts Chapel,78.02,158.76,102.06,170.1,430.91,Single-ply,SBD,M
Boys,82.1,10,Joseph Singletary,Nacogdoches,75.48,142.88,102.06,183.7,428.64,Single-ply,SBD,M
Boys,82.1,11,Jacob Hanson,Marshall,76.29,161.03,102.06,165.56,428.64,Single-ply,SBD,M
Boys,82.1,12,Kenneth Whitley,Hawkins,78.38,165.56,88.45,156.49,410.5,Single-ply,SBD,M
Boys,82.1,13,Felipe Amaro,Laird Hill Leveretts Chapel,81.92,151.95,97.52,154.22,403.7,Single-ply,SBD,M
Boys,82.1,14,Clayton Wyman,Lindale,75.66,142.88,83.91,154.22,381.02,Single-ply,SBD,M
Boys,82.1,15,Casey Williams #3,Nacogdoches,81.01,136.08,83.91,156.49,376.48,Single-ply,SBD,M
Boys,82.1,16,Tristan McClure,Paris,80.74,140.61,70.31,163.29,374.21,Single-ply,SBD,M
Boys,82.1,DQ,Lance Cane,Lindale,79.02,176.9,92.99,,,Single-ply,SBD,M
Boys,89.81,1,Dq Lipscomb,Paris,88.9,272.16,156.49,272.16,700.8,Single-ply,SBD,M
Boys,89.81,2,Austin Pitts,Marshall,83.73,195.04,127.01,208.65,530.7,Single-ply,SBD,M
Boys,89.81,3,Deaveron Dean,Tyler Chapel Hill,85.55,188.24,104.33,183.7,476.27,Single-ply,SBD,M
Boys,89.81,4,Fabi Molina,Lindale,87.63,174.63,97.52,190.51,462.66,Single-ply,SBD,M
Boys,89.81,5,Chris Furgason,Longview Pine Tree,87.27,179.17,92.99,179.17,451.32,Single-ply,SBD,M
Boys,89.81,6,Bryce Dover,Bullard,88.9,165.56,115.67,165.56,446.79,Single-ply,SBD,M
Boys,89.81,7,Cole Harwell,Hawkins,84.64,158.76,102.06,149.69,410.5,Single-ply,SBD,M
Boys,89.81,8,Chris Ray,Bullard,85.37,165.56,83.91,158.76,408.23,Single-ply,SBD,M
Boys,89.81,9,Troy Shiflet,Nacogdoches,87.72,145.15,92.99,145.15,383.29,Single-ply,SBD,M
Boys,89.81,10,Etan England,Paris,87,136.08,72.57,158.76,367.41,Single-ply,SBD,M
Boys,89.81,11,William Johnson,Ore City,84.1,124.74,95.25,145.15,365.14,Single-ply,SBD,M
Boys,89.81,12,Chris Grimes,Alto,85.91,131.54,74.84,127.01,333.39,Single-ply,SBD,M
Boys,89.81,DQ,Chase Williams,Beckville,88.9,113.4,86.18,,,Single-ply,SBD,M
Boys,99.79,1,Matt Wood,Bullard,97.98,260.82,142.88,215.46,619.15,Single-ply,SBD,M
Boys,99.79,2,Dante Marsh,Lindale,95.53,226.8,161.03,229.06,616.89,Single-ply,SBD,M
Boys,99.79,3,Keiundas Wade,Tyler Chapel Hill,99.52,204.12,136.08,233.6,573.79,Single-ply,SBD,M
Boys,109.77,4,Keven Garcia,Tyler Chapel Hill,99.88,204.12,151.95,204.12,560.19,Single-ply,SBD,M
Boys,99.79,5,Trevor Rumbelow,Bullard,92.53,213.19,113.4,226.8,553.38,Single-ply,SBD,M
Boys,99.79,6,Chris Chadwick,Longview Pine Tree,91.08,233.6,124.74,190.51,548.85,Single-ply,SBD,M
Boys,99.79,7,Kenderson Cooks,Marshall,90.26,219.99,111.13,204.12,535.24,Single-ply,SBD,M
Boys,99.79,8,Britt Thomas,Bullard,99.7,219.99,108.86,183.7,512.56,Single-ply,SBD,M
Boys,109.77,9,Gustavo Solis,Longview Pine Tree,99.88,190.51,113.4,206.38,510.29,Single-ply,SBD,M
Boys,99.79,10,Landon Wright,Lindale,99.06,188.24,95.25,195.04,478.54,Single-ply,SBD,M
Boys,99.79,11,Geoff Smith,Paris,92.62,163.29,102.06,199.58,464.93,Single-ply,SBD,M
Boys,99.79,12,Alex Silva,Marshall,97.98,183.7,92.99,188.24,464.93,Single-ply,SBD,M
Boys,99.79,13,Hunter Jeans,Marshall,90.17,174.63,97.52,188.24,460.4,Single-ply,SBD,M
Boys,99.79,14,Delenis Garrett,Tyler Chapel Hill,98.88,176.9,113.4,163.29,453.59,Single-ply,SBD,M
Boys,109.77,15,Isaiah Alvarez,Lindale,99.88,181.44,97.52,165.56,444.52,Single-ply,SBD,M
Boys,99.79,16,Jessie Harris,Laird Hill Leveretts Chapel,96.16,170.1,92.99,174.63,437.72,Single-ply,SBD,M
Boys,99.79,17,Jocob Smith,Longview Pine Tree,92.99,145.15,102.06,181.44,428.64,Single-ply,SBD,M
Boys,99.79,18,Michael Sheveland,Sunnyvale,99.25,163.29,92.99,167.83,424.11,Single-ply,SBD,M
Boys,99.79,19,Gonzalo Arreguin,Tyler Chapel Hill,92.08,136.08,113.4,167.83,417.3,Single-ply,SBD,M
Boys,99.79,20,Chase Williams,Hawkins,97.25,142.88,102.06,165.56,410.5,Single-ply,SBD,M
Boys,99.79,21,Matt Rischke,Bullard,96.71,156.49,92.99,151.95,401.43,Single-ply,SBD,M
Boys,99.79,22,Tim Myers,Nacogdoches,98.52,131.54,81.65,129.27,342.46,Single-ply,SBD,M
Boys,99.79,DQ,Dekota Newson,Marshall,97.43,272.16,147.42,,,Single-ply,SBD,M
Boys,99.79,DQ,Godswill Neweke,Sunnyvale,99.52,,,,,Single-ply,SBD,M
Boys,109.77,1,Eddie Calico,Longview Pine Tree,107.77,294.84,206.38,294.84,796.05,Single-ply,SBD,M
Boys,109.77,2,Michael Taylor #5,Alto,100.24,235.87,190.51,210.92,637.3,Single-ply,SBD,M
Boys,109.77,3,Stetson Farrell,Lindale,106.96,229.06,145.15,204.12,578.33,Single-ply,SBD,M
Boys,109.77,4,Clifford Dial,Ore City,106.41,226.8,131.54,213.19,571.53,Single-ply,SBD,M
Boys,109.77,5,Xavier Gordon,Nacogdoches,107.05,219.99,124.74,204.12,548.85,Single-ply,SBD,M
Boys,109.77,6,Ethan Florence,Lindale,100.79,181.44,113.4,181.44,476.27,Single-ply,SBD,M
Boys,109.77,7,Cody Forbes,Marshall,103.15,195.04,106.59,172.37,474,Single-ply,SBD,M
Boys,109.77,8,Mohammed Al-Rousan,Sunnyvale,101.7,176.9,115.67,161.03,453.59,Single-ply,SBD,M
Boys,109.77,9,Tristan Bishop,Bullard,102.42,158.76,113.4,174.63,446.79,Single-ply,SBD,M
Boys,109.77,10,Jesus Sevuentes,Longview Pine Tree,103.51,131.54,79.38,115.67,326.59,Single-ply,SBD,M
Boys,124.74,1,Victor Angeles,Beckville,117.03,249.48,165.56,217.72,632.76,Single-ply,SBD,M
Boys,124.74,2,Colton Byler,Mount Enterprise,113.4,249.48,142.88,219.99,612.35,Single-ply,SBD,M
Boys,124.74,3,Tristen Walsworth,Troup,112.13,244.94,140.61,215.46,601.01,Single-ply,SBD,M
Boys,124.74,4,Brandon Phillips,Paris,118.84,240.4,145.15,183.7,569.26,Single-ply,SBD,M
Boys,124.74,5,William Mitchell,Longview Pine Tree,110.31,226.8,136.08,197.31,560.19,Single-ply,SBD,M
Boys,124.74,6,Tj Talashek,Sunnyvale,120.84,226.8,106.59,224.53,557.92,Single-ply,SBD,M
Boys,124.74,7,Mustafa Rabah,Sunnyvale,118.57,213.19,124.74,204.12,542.04,Single-ply,SBD,M
Boys,124.74,8,Dj Williams,Lindale,113.31,201.85,124.74,204.12,530.7,Single-ply,SBD,M
Boys,124.74,9,Thad Bevis,Tyler Chapel Hill,120.02,217.72,117.93,188.24,523.9,Single-ply,SBD,M
Boys,124.74,10,Brandon Upshaw,Tyler Chapel Hill,123.1,213.19,122.47,183.7,519.36,Single-ply,SBD,M
Boys,124.74,11,Cody Bryce,Nacogdoches,117.66,195.04,102.06,192.78,489.88,Single-ply,SBD,M
Boys,124.74,12,Katrail Flanagan,Marshall,118.3,183.7,111.13,167.83,462.66,Single-ply,SBD,M
Boys,124.74,DQ,Marquis Gill,Paris,115.67,,,,,Single-ply,SBD,M
Boys,124.74+,1,Joshua Byrd,Marshall,142.97,294.84,181.44,219.99,696.26,Single-ply,SBD,M
Boys,124.74+,2,Jensen Jackson,Marshall,130.73,272.16,167.83,222.26,662.24,Single-ply,SBD,M
Boys,124.74+,3,Josh Hamilton,Tyler Chapel Hill,131.45,249.48,158.76,240.4,648.64,Single-ply,SBD,M
Boys,124.74+,4,Michael Stiles,Lindale,128.73,240.4,145.15,238.14,623.69,Single-ply,SBD,M
Boys,124.74+,5,D'Zavier Harris,Troup,132,217.72,154.22,224.53,596.47,Single-ply,SBD,M
Boys,124.74+,6,Antonio Romo,Lindale,141.07,231.33,124.74,226.8,582.87,Single-ply,SBD,M
Boys,124.74+,7,Eithan Gott,Lindale,145.33,197.31,102.06,190.51,489.88,Single-ply,SBD,M
Boys,124.74+,8,Dirk Eberhardt,Bullard,132.36,172.37,102.06,163.29,437.72,Single-ply,SBD,M
Boys,124.74+,9,Cody Hayes,Laird Hill Leveretts Chapel,152.04,151.95,83.91,156.49,392.36,Single-ply,SBD,M
